Análisis AIRBNB
…
tabla_frecuencias_type <- Airbnb_Data |>
     count(property_type) |>
    mutate(f = n / nrow(Airbnb_Data), N = cumsum(n), F = cumsum(f))

tabla_frecuencias_ordenada3 <- tabla_frecuencias_type |>
    arrange(desc(n))

tabla_frecuencias_ordenada3$F <- cumsum(tabla_frecuencias_ordenada3$f)

tabla_frecuencias_ordenada3$N <- cumsum(tabla_frecuencias_ordenada3$n)

print(tabla_frecuencias_ordenada3)

## # A tibble: 35 × 5
##    property_type       n       f     N     F
##    <chr>           <int>   <dbl> <int> <dbl>
##  1 Apartment       49003 0.661   49003 0.661
##  2 House           16511 0.223   65514 0.884
##  3 Condominium      2658 0.0359  68172 0.920
##  4 Townhouse        1692 0.0228  69864 0.943
##  5 Loft             1244 0.0168  71108 0.959
##  6 Other             607 0.00819 71715 0.968
##  7 Guesthouse        498 0.00672 72213 0.974
##  8 Bed & Breakfast   462 0.00623 72675 0.981
##  9 Bungalow          366 0.00494 73041 0.986
## 10 Villa             179 0.00242 73220 0.988
## # ℹ 25 more rows
…
CONTAR EL NÚMERO DE RESPUESTAS

num_respuestas_neighbourhood <- length(unique(Airbnb_Data$neighbourhood))
cat("El número de respuestas obtenido es: ", num_respuestas_neighbourhood)

## El número de respuestas obtenido es:  620

TABLA DE FRECUENCIAS

tabla_frec_neighbourhood <- Airbnb_Data |> count(Airbnb_Data$neighbourhood) |> mutate(f = n/nrow(Airbnb_Data), N = cumsum(n), F = cumsum(f))
tabla_frec_ord_1 <- tabla_frec_neighbourhood |> arrange(desc(n)) 

print(tabla_frec_neighbourhood)

## # A tibble: 620 × 5
##    `Airbnb_Data$neighbourhood`     n         f     N       F
##    <chr>                       <int>     <dbl> <int>   <dbl>
##  1 16th Street Heights            91 0.00123      91 0.00123
##  2 Adams Morgan                  205 0.00277     296 0.00399
##  3 Alamo Square                   97 0.00131     393 0.00530
##  4 Albany Park                    19 0.000256    412 0.00556
##  5 Alhambra                       77 0.00104     489 0.00660
##  6 Allerton                       12 0.000162    501 0.00676
##  7 Allston-Brighton              414 0.00559     915 0.0123 
##  8 Alondra Park                    2 0.0000270   917 0.0124 
##  9 Alphabet City                 619 0.00835    1536 0.0207 
## 10 Altadena                      108 0.00146    1644 0.0222 
## # ℹ 610 more rows
…
